{
  "__type__": "cc.SpriteFrame",
  "content": {
    "name": "Group 155",
    "texture": "62650712-bb3e-4a61-91c2-a5bac265fff9",
    "atlas": "",
    "rect": [
      0,
      0,
      240,
      142
    ],
    "offset": [
      0,
      0
    ],
    "originalSize": [
      240,
      142
    ],
    "capInsets": [
      0,
      0,
      0,
      0
    ]
  }
}