{
  "__type__": "cc.SpriteFrame",
  "content": {
    "name": "coin",
    "texture": "6c577b63-4b5e-42a5-b38e-f5cecad5c134",
    "atlas": "",
    "rect": [
      0,
      0,
      43,
      42
    ],
    "offset": [
      0,
      0
    ],
    "originalSize": [
      43,
      42
    ],
    "capInsets": [
      0,
      0,
      0,
      0
    ]
  }
}