{
  "__type__": "cc.SpriteFrame",
  "content": {
    "name": "3",
    "texture": "919067b3-b934-4c6f-a4fc-759deb10c862",
    "atlas": "448cb66b-277d-438f-b35d-304bdffad72c",
    "rect": [
      371,
      1,
      28,
      36
    ],
    "offset": [
      0.5,
      -0.5
    ],
    "originalSize": [
      27,
      35
    ],
    "capInsets": [
      0,
      0,
      0,
      0
    ]
  }
}