{
  "__type__": "cc.SpriteFrame",
  "content": {
    "name": "back",
    "texture": "919067b3-b934-4c6f-a4fc-759deb10c862",
    "atlas": "448cb66b-277d-438f-b35d-304bdffad72c",
    "rect": [
      269,
      341,
      142,
      182
    ],
    "offset": [
      0.5,
      0
    ],
    "originalSize": [
      141,
      182
    ],
    "capInsets": [
      0,
      0,
      0,
      0
    ]
  }
}