{
  "__type__": "cc.SpriteFrame",
  "content": {
    "name": "button bo luot",
    "texture": "6153516b-ded2-4b11-ad81-ba0ff00ddb7e",
    "atlas": "",
    "rect": [
      0,
      0,
      188,
      60
    ],
    "offset": [
      0,
      0
    ],
    "originalSize": [
      188,
      60
    ],
    "capInsets": [
      0,
      0,
      0,
      0
    ]
  }
}