{
  "__type__": "cc.SpriteFrame",
  "content": {
    "name": "14-KhanhVan",
    "texture": "5c0788fa-0fea-4961-a0b4-8633a6874f8c",
    "atlas": "",
    "rect": [
      0,
      0,
      128,
      128
    ],
    "offset": [
      0,
      0
    ],
    "originalSize": [
      128,
      128
    ],
    "capInsets": [
      0,
      0,
      0,
      0
    ]
  }
}