{
  "__type__": "cc.SpriteFrame",
  "content": {
    "name": "setting_icon",
    "texture": "ce075153-1063-42d3-8932-5b8ab6b28385",
    "atlas": "",
    "rect": [
      0,
      0,
      53,
      53
    ],
    "offset": [
      0,
      0
    ],
    "originalSize": [
      53,
      53
    ],
    "capInsets": [
      0,
      0,
      0,
      0
    ]
  }
}