{
  "__type__": "cc.SpriteFrame",
  "content": {
    "name": "5",
    "texture": "047cbc24-f098-4d1d-9294-623e07d9dd1c",
    "atlas": "2063e6ae-3289-4e4e-b0fa-9b154302d882",
    "rect": [
      431,
      1,
      28,
      36
    ],
    "offset": [
      0.5,
      -0.5
    ],
    "originalSize": [
      27,
      35
    ],
    "capInsets": [
      0,
      0,
      0,
      0
    ]
  }
}