{
  "__type__": "cc.SpriteFrame",
  "content": {
    "name": "notification",
    "texture": "0d904072-28d4-410a-bdbc-cffe2399df0c",
    "atlas": "",
    "rect": [
      0,
      0,
      299,
      71
    ],
    "offset": [
      0,
      0
    ],
    "originalSize": [
      299,
      71
    ],
    "capInsets": [
      0,
      0,
      0,
      0
    ]
  }
}