{
  "__type__": "cc.SpriteFrame",
  "content": {
    "name": "popup1",
    "texture": "3fe2d97f-46af-4113-9059-e1432def6b16",
    "atlas": "",
    "rect": [
      0,
      0,
      80,
      73
    ],
    "offset": [
      0,
      0
    ],
    "originalSize": [
      80,
      73
    ],
    "capInsets": [
      23,
      23,
      23,
      23
    ]
  }
}