{
  "__type__": "cc.SpriteFrame",
  "content": {
    "name": "4 nguoi on",
    "texture": "98a8e0f3-1c9e-42c1-8e57-3024d6a0580c",
    "atlas": "",
    "rect": [
      0,
      0,
      166,
      125
    ],
    "offset": [
      0,
      0
    ],
    "originalSize": [
      166,
      125
    ],
    "capInsets": [
      0,
      0,
      0,
      0
    ]
  }
}