{
  "__type__": "cc.SpriteFrame",
  "content": {
    "name": "rank3",
    "texture": "1be1b3a9-1b11-4998-82d2-1276ecc2e935",
    "atlas": "",
    "rect": [
      1,
      1,
      75,
      79
    ],
    "offset": [
      0,
      -0.5
    ],
    "originalSize": [
      77,
      80
    ],
    "capInsets": [
      0,
      0,
      0,
      0
    ]
  }
}