{
  "__type__": "cc.SpriteFrame",
  "content": {
    "name": "man home",
    "texture": "55462a2d-7039-4c5c-97e6-6cb2d949a2b5",
    "atlas": "",
    "rect": [
      0,
      0,
      1280,
      720
    ],
    "offset": [
      0,
      0
    ],
    "originalSize": [
      1280,
      720
    ],
    "capInsets": [
      0,
      0,
      0,
      0
    ]
  }
}