{
  "__type__": "cc.SpriteFrame",
  "content": {
    "name": "Layer 23",
    "texture": "22f51d89-ba2e-4c5d-8b5e-980c2cedcb0c",
    "atlas": "",
    "rect": [
      0,
      0,
      49,
      52
    ],
    "offset": [
      0,
      0
    ],
    "originalSize": [
      49,
      52
    ],
    "capInsets": [
      0,
      0,
      0,
      0
    ]
  }
}