{
  "__type__": "sp.SkeletonData",
  "_name": "eff",
  "_objFlags": 0,
  "_native": "",
  "_skeletonJson": {
    "skeleton": {
      "hash": "1IFJY5wp0swS8SPhHNZ1897bwt8",
      "spine": "3.7.91",
      "width": 282,
      "height": 344.43,
      "images": "./image/",
      "audio": "C:/Users/Kirrill_Rua/Desktop/game bài minh béo/effect button"
    },
    "bones": [
      {
        "name": "root"
      },
      {
        "name": "main",
        "parent": "root",
        "x": -0.03,
        "y": -19.87
      },
      {
        "name": "light",
        "parent": "main",
        "x": 0.01,
        "y": 62.84,
        "scaleY": 0.787
      },
      {
        "name": "text",
        "parent": "root",
        "x": -1.42,
        "y": 149.68
      },
      {
        "name": "light2",
        "parent": "main",
        "x": -39.92,
        "y": 279.33
      },
      {
        "name": "NGAY",
        "parent": "root",
        "x": -2.17,
        "y": 108.3
      },
      {
        "name": "light3",
        "parent": "main",
        "x": 79.13,
        "y": 235.53
      },
      {
        "name": "ce050fb932396ea4ad256db456c05e60e37463e72c587-bXCO56_fw658",
        "parent": "main",
        "x": 5.52,
        "y": 228.27,
        "scaleX": 0.919,
        "scaleY": 0.919
      },
      {
        "name": "BO 10 (4) copy",
        "parent": "root",
        "length": 99.95,
        "rotation": 104.53,
        "x": -31.9,
        "y": 201.51
      },
      {
        "name": "BO J (4) copy",
        "parent": "root",
        "length": 98.3,
        "rotation": 103.7,
        "x": -19.68,
        "y": 216.36
      },
      {
        "name": "BO Q (4) copy",
        "parent": "root",
        "length": 99.96,
        "rotation": 98.74,
        "x": -16.65,
        "y": 223.21
      },
      {
        "name": "BO K (4) copy",
        "parent": "root",
        "length": 99.12,
        "rotation": 94.95,
        "x": -4.29,
        "y": 227.84
      },
      {
        "name": "BO A (4) copy",
        "parent": "root",
        "length": 93.35,
        "rotation": 89.99,
        "x": 10.81,
        "y": 237.49
      }
    ],
    "slots": [
      {
        "name": "main",
        "bone": "main",
        "attachment": "main"
      },
      {
        "name": "light",
        "bone": "light",
        "attachment": "light",
        "blend": "additive"
      },
      {
        "name": "light2path",
        "bone": "main",
        "attachment": "light2path"
      },
      {
        "name": "BO 10 (4) copy",
        "bone": "BO 10 (4) copy",
        "attachment": "BO 10 (4) copy"
      },
      {
        "name": "BO J (4) copy",
        "bone": "BO J (4) copy",
        "attachment": "BO J (4) copy"
      },
      {
        "name": "BO Q (4) copy",
        "bone": "BO Q (4) copy",
        "attachment": "BO Q (4) copy"
      },
      {
        "name": "BO K (4) copy",
        "bone": "BO K (4) copy",
        "attachment": "BO K (4) copy"
      },
      {
        "name": "BO A (4) copy",
        "bone": "BO A (4) copy",
        "attachment": "BO A (4) copy"
      },
      {
        "name": "ce050fb932396ea4ad256db456c05e60e37463e72c587-bXCO56_fw658",
        "bone": "ce050fb932396ea4ad256db456c05e60e37463e72c587-bXCO56_fw658",
        "attachment": "ce050fb932396ea4ad256db456c05e60e37463e72c587-bXCO56_fw658"
      },
      {
        "name": "text",
        "bone": "text",
        "attachment": "CHI"
      },
      {
        "name": "NGAY",
        "bone": "NGAY",
        "attachment": "ngay"
      },
      {
        "name": "light2",
        "bone": "light2",
        "color": "ff5555ff",
        "attachment": "light2",
        "blend": "additive"
      },
      {
        "name": "light3",
        "bone": "light3",
        "attachment": "light2",
        "blend": "additive"
      }
    ],
    "skins": {
      "default": {
        "BO 10 (4) copy": {
          "BO 10 (4) copy": {
            "x": 48.07,
            "y": -2.3,
            "rotation": -90,
            "width": 94,
            "height": 120
          }
        },
        "BO A (4) copy": {
          "BO A (4) copy": {
            "x": 48.09,
            "y": -2.57,
            "rotation": -91.01,
            "width": 94,
            "height": 121
          }
        },
        "BO J (4) copy": {
          "BO J (4) copy": {
            "x": 49.52,
            "y": 1.69,
            "rotation": -90.48,
            "width": 94,
            "height": 120
          }
        },
        "BO K (4) copy": {
          "BO K (4) copy": {
            "x": 50.6,
            "y": -4.02,
            "rotation": -90.48,
            "width": 94,
            "height": 120
          }
        },
        "BO Q (4) copy": {
          "BO Q (4) copy": {
            "x": 49.23,
            "y": -3.97,
            "rotation": -90.95,
            "width": 95,
            "height": 121
          }
        },
        "NGAY": {
          "ngay": {
            "x": 0.83,
            "y": -1.66,
            "width": 126,
            "height": 58
          }
        },
        "ce050fb932396ea4ad256db456c05e60e37463e72c587-bXCO56_fw658": {
          "ce050fb932396ea4ad256db456c05e60e37463e72c587-bXCO56_fw658": {
            "x": -5.68,
            "y": -13.96,
            "scaleX": 1.076,
            "scaleY": 1.076,
            "width": 200,
            "height": 174
          }
        },
        "light": {
          "light": {
            "x": 1.18,
            "y": 0.61,
            "width": 46,
            "height": 37
          }
        },
        "light2": {
          "light2": {
            "x": 0.81,
            "y": 2.94,
            "width": 48,
            "height": 53
          }
        },
        "light2path": {
          "light2path": {
            "type": "path",
            "lengths": [
              275.37,
              497.36,
              704.12
            ],
            "vertexCount": 9,
            "vertices": [
              65.54,
              326.48,
              112.3,
              224.63,
              150.66,
              141.08,
              75.65,
              18.41,
              -29.37,
              50.14,
              -134.4,
              81.86,
              -135.71,
              179.99,
              -113.06,
              227.05,
              -90.4,
              274.11
            ]
          }
        },
        "light3": {
          "light2": {
            "x": 0.81,
            "y": 2.94,
            "width": 48,
            "height": 53
          }
        },
        "main": {
          "main": {
            "x": -0.81,
            "y": 170.85,
            "width": 282,
            "height": 297
          }
        },
        "text": {
          "CHI": {
            "x": 0.58,
            "y": 0.68,
            "width": 134,
            "height": 44
          }
        }
      }
    },
    "animations": {
      "animation": {
        "slots": {
          "light2": {
            "color": [
              {
                "time": 2.3333,
                "color": "ffffff00"
              }
            ]
          },
          "light3": {
            "color": [
              {
                "time": 0,
                "color": "ffffff00",
                "curve": "stepped"
              },
              {
                "time": 0.3333,
                "color": "ffffff00"
              },
              {
                "time": 0.6667,
                "color": "ffffffff"
              },
              {
                "time": 2.3333,
                "color": "ffffff00"
              }
            ]
          }
        },
        "bones": {
          "root": {
            "rotate": [
              {
                "time": 0,
                "angle": 0,
                "curve": "stepped"
              },
              {
                "time": 2.3333,
                "angle": 0
              }
            ],
            "translate": [
              {
                "time": 0,
                "x": 0,
                "y": 0,
                "curve": "stepped"
              },
              {
                "time": 2.3333,
                "x": 0,
                "y": 0
              }
            ],
            "scale": [
              {
                "time": 0,
                "x": 1,
                "y": 1,
                "curve": "stepped"
              },
              {
                "time": 2.3333,
                "x": 1,
                "y": 1
              }
            ]
          },
          "main": {
            "rotate": [
              {
                "time": 0,
                "angle": 0,
                "curve": "stepped"
              },
              {
                "time": 2.3333,
                "angle": 0
              }
            ],
            "translate": [
              {
                "time": 0,
                "x": 0,
                "y": 0,
                "curve": "stepped"
              },
              {
                "time": 2.3333,
                "x": 0,
                "y": 0
              }
            ],
            "scale": [
              {
                "time": 0,
                "x": 1,
                "y": 1,
                "curve": "stepped"
              },
              {
                "time": 2.3333,
                "x": 1,
                "y": 1
              }
            ]
          },
          "light": {
            "rotate": [
              {
                "time": 0,
                "angle": 0,
                "curve": "stepped"
              },
              {
                "time": 2.3333,
                "angle": 0
              }
            ],
            "translate": [
              {
                "time": 0,
                "x": 0,
                "y": 0,
                "curve": [
                  0.25,
                  0,
                  0.75,
                  1
                ]
              },
              {
                "time": 1.1667,
                "x": -1.15,
                "y": 1.46,
                "curve": [
                  0.25,
                  0,
                  0.75,
                  1
                ]
              },
              {
                "time": 2.3333,
                "x": 0,
                "y": 0
              }
            ],
            "scale": [
              {
                "time": 0,
                "x": 1,
                "y": 1,
                "curve": [
                  0.25,
                  0,
                  0.75,
                  1
                ]
              },
              {
                "time": 1.1667,
                "x": 1.538,
                "y": 1.538,
                "curve": [
                  0.25,
                  0,
                  0.75,
                  1
                ]
              },
              {
                "time": 2.3333,
                "x": 1,
                "y": 1
              }
            ]
          },
          "text": {
            "rotate": [
              {
                "time": 0,
                "angle": 0,
                "curve": "stepped"
              },
              {
                "time": 2.3333,
                "angle": 0
              }
            ],
            "translate": [
              {
                "time": 0,
                "x": 0,
                "y": 0,
                "curve": [
                  0.25,
                  0,
                  0.75,
                  1
                ]
              },
              {
                "time": 1.3333,
                "x": 0,
                "y": 7.88,
                "curve": [
                  0.25,
                  0,
                  0.75,
                  1
                ]
              },
              {
                "time": 2.3333,
                "x": 0,
                "y": 0
              }
            ],
            "scale": [
              {
                "time": 0,
                "x": 1,
                "y": 1,
                "curve": [
                  0.25,
                  0,
                  0.75,
                  1
                ]
              },
              {
                "time": 1.3333,
                "x": 1.076,
                "y": 1.076,
                "curve": [
                  0.25,
                  0,
                  0.75,
                  1
                ]
              },
              {
                "time": 2.3333,
                "x": 1,
                "y": 1
              }
            ]
          },
          "light2": {
            "rotate": [
              {
                "time": 0,
                "angle": -65.34
              },
              {
                "time": 0.5667,
                "angle": 90
              },
              {
                "time": 1.1667,
                "angle": 180
              },
              {
                "time": 1.7667,
                "angle": -90
              },
              {
                "time": 2.3333,
                "angle": 0
              }
            ],
            "translate": [
              {
                "time": 0,
                "x": 0.93,
                "y": 0.22
              },
              {
                "time": 1.8667,
                "x": -3.27,
                "y": -3.28
              },
              {
                "time": 2.3333,
                "x": 0.93,
                "y": 0.22
              }
            ],
            "scale": [
              {
                "time": 0,
                "x": 0,
                "y": 0
              },
              {
                "time": 1.1667,
                "x": 1.176,
                "y": 1.176
              },
              {
                "time": 2.3333,
                "x": 0,
                "y": 0
              }
            ]
          },
          "NGAY": {
            "rotate": [
              {
                "time": 0,
                "angle": 0,
                "curve": "stepped"
              },
              {
                "time": 0.5,
                "angle": 0,
                "curve": "stepped"
              },
              {
                "time": 2.3333,
                "angle": 0
              }
            ],
            "translate": [
              {
                "time": 0,
                "x": 0,
                "y": 0,
                "curve": "stepped"
              },
              {
                "time": 0.5,
                "x": 0,
                "y": 0,
                "curve": "stepped"
              },
              {
                "time": 2.3333,
                "x": 0,
                "y": 0
              }
            ],
            "scale": [
              {
                "time": 0,
                "x": 1.038,
                "y": 1.038,
                "curve": [
                  0.375,
                  0.5,
                  0.75,
                  1
                ]
              },
              {
                "time": 0.5,
                "x": 1,
                "y": 1,
                "curve": [
                  0.25,
                  0,
                  0.75,
                  1
                ]
              },
              {
                "time": 1.8333,
                "x": 1.076,
                "y": 1.076,
                "curve": [
                  0.25,
                  0,
                  0.625,
                  0.5
                ]
              },
              {
                "time": 2.3333,
                "x": 1.038,
                "y": 1.038
              }
            ]
          },
          "light3": {
            "rotate": [
              {
                "time": 0,
                "angle": -52.94
              },
              {
                "time": 0.3333,
                "angle": 0
              },
              {
                "time": 0.9,
                "angle": 90
              },
              {
                "time": 1.5,
                "angle": 180
              },
              {
                "time": 2.1,
                "angle": -90
              },
              {
                "time": 2.3333,
                "angle": -52.94
              }
            ],
            "translate": [
              {
                "time": 0,
                "x": 0.93,
                "y": 0.22,
                "curve": "stepped"
              },
              {
                "time": 0.3333,
                "x": 0.93,
                "y": 0.22,
                "curve": "stepped"
              },
              {
                "time": 2.3333,
                "x": 0.93,
                "y": 0.22
              }
            ],
            "scale": [
              {
                "time": 0,
                "x": 0.336,
                "y": 0.336
              },
              {
                "time": 0.3333,
                "x": 0,
                "y": 0
              },
              {
                "time": 1.5,
                "x": 1.176,
                "y": 1.176
              },
              {
                "time": 2.3333,
                "x": 0.336,
                "y": 0.336
              }
            ]
          },
          "BO 10 (4) copy": {
            "rotate": [
              {
                "time": 0,
                "angle": 0,
                "curve": "stepped"
              },
              {
                "time": 0.2667,
                "angle": 0
              },
              {
                "time": 1,
                "angle": 36.05,
                "curve": "stepped"
              },
              {
                "time": 2.1667,
                "angle": 36.05
              },
              {
                "time": 2.3333,
                "angle": 0
              }
            ],
            "translate": [
              {
                "time": 0,
                "x": 0,
                "y": 0
              },
              {
                "time": 0.1667,
                "x": 0,
                "y": 19.91
              },
              {
                "time": 0.2667,
                "x": 0,
                "y": 0
              },
              {
                "time": 1,
                "x": 6.5,
                "y": -4.06,
                "curve": "stepped"
              },
              {
                "time": 2.1667,
                "x": 6.5,
                "y": -4.06
              },
              {
                "time": 2.3333,
                "x": 0,
                "y": 0
              }
            ],
            "scale": [
              {
                "time": 0,
                "x": 1,
                "y": 1,
                "curve": "stepped"
              },
              {
                "time": 0.2667,
                "x": 1,
                "y": 1,
                "curve": "stepped"
              },
              {
                "time": 2.3333,
                "x": 1,
                "y": 1
              }
            ]
          },
          "BO J (4) copy": {
            "rotate": [
              {
                "time": 0,
                "angle": 0,
                "curve": "stepped"
              },
              {
                "time": 0.1667,
                "angle": 0,
                "curve": "stepped"
              },
              {
                "time": 0.4333,
                "angle": 0
              },
              {
                "time": 1,
                "angle": 17.64,
                "curve": "stepped"
              },
              {
                "time": 2.1667,
                "angle": 17.64
              },
              {
                "time": 2.3333,
                "angle": 0
              }
            ],
            "translate": [
              {
                "time": 0,
                "x": 0,
                "y": 0,
                "curve": "stepped"
              },
              {
                "time": 0.1667,
                "x": 0,
                "y": 0
              },
              {
                "time": 0.3333,
                "x": 0,
                "y": 19.91
              },
              {
                "time": 0.4333,
                "x": 0,
                "y": 0,
                "curve": "stepped"
              },
              {
                "time": 2.3333,
                "x": 0,
                "y": 0
              }
            ],
            "scale": [
              {
                "time": 0,
                "x": 1,
                "y": 1,
                "curve": "stepped"
              },
              {
                "time": 0.1667,
                "x": 1,
                "y": 1,
                "curve": "stepped"
              },
              {
                "time": 0.4333,
                "x": 1,
                "y": 1,
                "curve": "stepped"
              },
              {
                "time": 2.3333,
                "x": 1,
                "y": 1
              }
            ]
          },
          "BO Q (4) copy": {
            "rotate": [
              {
                "time": 0,
                "angle": 0,
                "curve": "stepped"
              },
              {
                "time": 0.1667,
                "angle": 0,
                "curve": "stepped"
              },
              {
                "time": 0.3333,
                "angle": 0,
                "curve": "stepped"
              },
              {
                "time": 0.6,
                "angle": 0,
                "curve": "stepped"
              },
              {
                "time": 2.3333,
                "angle": 0
              }
            ],
            "translate": [
              {
                "time": 0,
                "x": 0,
                "y": 0,
                "curve": "stepped"
              },
              {
                "time": 0.1667,
                "x": 0,
                "y": 0,
                "curve": "stepped"
              },
              {
                "time": 0.3333,
                "x": 0,
                "y": 0
              },
              {
                "time": 0.5,
                "x": 0,
                "y": 19.91
              },
              {
                "time": 0.6,
                "x": 0,
                "y": 0
              },
              {
                "time": 1,
                "x": 0,
                "y": 5.58,
                "curve": "stepped"
              },
              {
                "time": 2.1667,
                "x": 0,
                "y": 5.58
              },
              {
                "time": 2.3333,
                "x": 0,
                "y": 0
              }
            ],
            "scale": [
              {
                "time": 0,
                "x": 1,
                "y": 1,
                "curve": "stepped"
              },
              {
                "time": 0.1667,
                "x": 1,
                "y": 1,
                "curve": "stepped"
              },
              {
                "time": 0.3333,
                "x": 1,
                "y": 1,
                "curve": "stepped"
              },
              {
                "time": 0.6,
                "x": 1,
                "y": 1,
                "curve": "stepped"
              },
              {
                "time": 2.3333,
                "x": 1,
                "y": 1
              }
            ]
          },
          "BO K (4) copy": {
            "rotate": [
              {
                "time": 0,
                "angle": 0,
                "curve": "stepped"
              },
              {
                "time": 0.1667,
                "angle": 0,
                "curve": "stepped"
              },
              {
                "time": 0.3333,
                "angle": 0,
                "curve": "stepped"
              },
              {
                "time": 0.5,
                "angle": 0,
                "curve": "stepped"
              },
              {
                "time": 0.7667,
                "angle": 0
              },
              {
                "time": 1,
                "angle": -15.5,
                "curve": "stepped"
              },
              {
                "time": 2.1667,
                "angle": -15.5
              },
              {
                "time": 2.3333,
                "angle": 0
              }
            ],
            "translate": [
              {
                "time": 0,
                "x": 0,
                "y": 0,
                "curve": "stepped"
              },
              {
                "time": 0.1667,
                "x": 0,
                "y": 0,
                "curve": "stepped"
              },
              {
                "time": 0.3333,
                "x": 0,
                "y": 0,
                "curve": "stepped"
              },
              {
                "time": 0.5,
                "x": 0,
                "y": 0
              },
              {
                "time": 0.6667,
                "x": 0,
                "y": 19.91
              },
              {
                "time": 0.7667,
                "x": 0,
                "y": 0
              },
              {
                "time": 1,
                "x": 0,
                "y": 5.58,
                "curve": "stepped"
              },
              {
                "time": 2.1667,
                "x": 0,
                "y": 5.58
              },
              {
                "time": 2.3333,
                "x": 0,
                "y": 0
              }
            ],
            "scale": [
              {
                "time": 0,
                "x": 1,
                "y": 1,
                "curve": "stepped"
              },
              {
                "time": 0.1667,
                "x": 1,
                "y": 1,
                "curve": "stepped"
              },
              {
                "time": 0.3333,
                "x": 1,
                "y": 1,
                "curve": "stepped"
              },
              {
                "time": 0.5,
                "x": 1,
                "y": 1,
                "curve": "stepped"
              },
              {
                "time": 0.7667,
                "x": 1,
                "y": 1,
                "curve": "stepped"
              },
              {
                "time": 2.3333,
                "x": 1,
                "y": 1
              }
            ]
          },
          "BO A (4) copy": {
            "rotate": [
              {
                "time": 0,
                "angle": 0,
                "curve": "stepped"
              },
              {
                "time": 0.1667,
                "angle": 0,
                "curve": "stepped"
              },
              {
                "time": 0.3333,
                "angle": 0,
                "curve": "stepped"
              },
              {
                "time": 0.5,
                "angle": 0,
                "curve": "stepped"
              },
              {
                "time": 0.6667,
                "angle": 0,
                "curve": "stepped"
              },
              {
                "time": 0.9333,
                "angle": 0
              },
              {
                "time": 1,
                "angle": -32.05,
                "curve": "stepped"
              },
              {
                "time": 2.1667,
                "angle": -32.05
              },
              {
                "time": 2.3333,
                "angle": 0
              }
            ],
            "translate": [
              {
                "time": 0,
                "x": 0,
                "y": 0,
                "curve": "stepped"
              },
              {
                "time": 0.1667,
                "x": 0,
                "y": 0,
                "curve": "stepped"
              },
              {
                "time": 0.3333,
                "x": 0,
                "y": 0,
                "curve": "stepped"
              },
              {
                "time": 0.5,
                "x": 0,
                "y": 0,
                "curve": "stepped"
              },
              {
                "time": 0.6667,
                "x": 0,
                "y": 0
              },
              {
                "time": 0.8333,
                "x": 0,
                "y": 19.91
              },
              {
                "time": 0.9333,
                "x": 0,
                "y": 0
              },
              {
                "time": 1,
                "x": 2.48,
                "y": 3.72,
                "curve": "stepped"
              },
              {
                "time": 2.1667,
                "x": 2.48,
                "y": 3.72
              },
              {
                "time": 2.3333,
                "x": 0,
                "y": 0
              }
            ],
            "scale": [
              {
                "time": 0,
                "x": 1,
                "y": 1,
                "curve": "stepped"
              },
              {
                "time": 0.1667,
                "x": 1,
                "y": 1,
                "curve": "stepped"
              },
              {
                "time": 0.3333,
                "x": 1,
                "y": 1,
                "curve": "stepped"
              },
              {
                "time": 0.5,
                "x": 1,
                "y": 1,
                "curve": "stepped"
              },
              {
                "time": 0.6667,
                "x": 1,
                "y": 1,
                "curve": "stepped"
              },
              {
                "time": 0.9333,
                "x": 1,
                "y": 1,
                "curve": "stepped"
              },
              {
                "time": 2.3333,
                "x": 1,
                "y": 1
              }
            ]
          }
        }
      }
    }
  },
  "_atlasText": "\neff.png\nsize: 512,512\nformat: RGBA8888\nfilter: Linear,Linear\nrepeat: none\nBO 10 (4) copy\n  rotate: false\n  xy: 383, 361\n  size: 94, 120\n  orig: 94, 120\n  offset: 0, 0\n  index: -1\nBO A (4) copy\n  rotate: false\n  xy: 286, 237\n  size: 94, 121\n  orig: 94, 121\n  offset: 0, 0\n  index: -1\nBO J (4) copy\n  rotate: false\n  xy: 204, 62\n  size: 94, 120\n  orig: 94, 120\n  offset: 0, 0\n  index: -1\nBO K (4) copy\n  rotate: false\n  xy: 300, 115\n  size: 94, 120\n  orig: 94, 120\n  offset: 0, 0\n  index: -1\nBO Q (4) copy\n  rotate: false\n  xy: 286, 360\n  size: 95, 121\n  orig: 95, 121\n  offset: 0, 0\n  index: -1\nCHI\n  rotate: false\n  xy: 300, 69\n  size: 134, 44\n  orig: 134, 44\n  offset: 0, 0\n  index: -1\nce050fb932396ea4ad256db456c05e60e37463e72c587-bXCO56_fw658\n  rotate: false\n  xy: 2, 8\n  size: 200, 174\n  orig: 200, 174\n  offset: 0, 0\n  index: -1\nlight\n  rotate: false\n  xy: 382, 30\n  size: 46, 37\n  orig: 46, 37\n  offset: 0, 0\n  index: -1\nlight2\n  rotate: false\n  xy: 332, 14\n  size: 48, 53\n  orig: 48, 53\n  offset: 0, 0\n  index: -1\nmain\n  rotate: false\n  xy: 2, 184\n  size: 282, 297\n  orig: 282, 297\n  offset: 0, 0\n  index: -1\nngay\n  rotate: false\n  xy: 204, 2\n  size: 126, 58\n  orig: 126, 58\n  offset: 0, 0\n  index: -1\n",
  "textures": [
    {
      "__uuid__": "d81155c3-e93b-4472-a5a0-a4096afa8c5a"
    }
  ],
  "textureNames": [
    "eff.png"
  ],
  "scale": 1
}