{
  "__type__": "cc.SpriteFrame",
  "content": {
    "name": "m1",
    "texture": "7669a2a5-24ca-4c9b-a700-22832b48f9ee",
    "atlas": "",
    "rect": [
      0,
      0,
      16,
      15
    ],
    "offset": [
      0,
      0
    ],
    "originalSize": [
      16,
      15
    ],
    "capInsets": [
      0,
      0,
      0,
      0
    ]
  }
}