{
  "__type__": "cc.SpriteFrame",
  "content": {
    "name": "J đen",
    "texture": "919067b3-b934-4c6f-a4fc-759deb10c862",
    "atlas": "448cb66b-277d-438f-b35d-304bdffad72c",
    "rect": [
      125,
      235,
      120,
      104
    ],
    "offset": [
      0,
      -0.5
    ],
    "originalSize": [
      120,
      103
    ],
    "capInsets": [
      0,
      0,
      0,
      0
    ]
  }
}