{
  "__type__": "cc.SpriteFrame",
  "content": {
    "name": "Rectangle 1",
    "texture": "8048b43b-76fe-435e-a4f7-527c1b321e15",
    "atlas": "",
    "rect": [
      1,
      1,
      72,
      72
    ],
    "offset": [
      0,
      0
    ],
    "originalSize": [
      74,
      74
    ],
    "capInsets": [
      0,
      0,
      0,
      0
    ]
  }
}