{
  "__type__": "cc.SpriteFrame",
  "content": {
    "name": "den-len-o-goc",
    "texture": "ee97809d-4e06-421b-b962-26073db8f8bf",
    "atlas": "",
    "rect": [
      0,
      0,
      35,
      11
    ],
    "offset": [
      0,
      0
    ],
    "originalSize": [
      35,
      11
    ],
    "capInsets": [
      0,
      0,
      0,
      0
    ]
  }
}