{
  "__type__": "cc.SpriteFrame",
  "content": {
    "name": "4 doi thong",
    "texture": "e386cb52-ccf2-419c-acdd-360195487d46",
    "atlas": "",
    "rect": [
      0,
      0,
      401,
      52
    ],
    "offset": [
      0,
      0
    ],
    "originalSize": [
      401,
      52
    ],
    "capInsets": [
      0,
      0,
      0,
      0
    ]
  }
}