{
  "__type__": "cc.SpriteFrame",
  "content": {
    "name": "J đỏ",
    "texture": "047cbc24-f098-4d1d-9294-623e07d9dd1c",
    "atlas": "2063e6ae-3289-4e4e-b0fa-9b154302d882",
    "rect": [
      363,
      131,
      120,
      102
    ],
    "offset": [
      0,
      -0.5
    ],
    "originalSize": [
      120,
      101
    ],
    "capInsets": [
      0,
      0,
      0,
      0
    ]
  }
}