{
  "__type__": "cc.SpriteFrame",
  "content": {
    "name": "ava1",
    "texture": "a2570c0d-5a52-45b3-a687-c3b479b1df20",
    "atlas": "",
    "rect": [
      0,
      0,
      67,
      67
    ],
    "offset": [
      0,
      0
    ],
    "originalSize": [
      67,
      67
    ],
    "capInsets": [
      0,
      0,
      0,
      0
    ]
  }
}