{
  "__type__": "cc.SpriteFrame",
  "content": {
    "name": "bet",
    "texture": "2ae447d7-e51e-498e-917d-64e3a4072412",
    "atlas": "",
    "rect": [
      0,
      0,
      286,
      117
    ],
    "offset": [
      0,
      0
    ],
    "originalSize": [
      286,
      117
    ],
    "capInsets": [
      0,
      0,
      0,
      0
    ]
  }
}