{
  "__type__": "cc.SpriteFrame",
  "content": {
    "name": "friend",
    "texture": "fbae59da-40f7-4649-b0b9-be8d0c3359c4",
    "atlas": "",
    "rect": [
      0,
      0,
      231,
      59
    ],
    "offset": [
      0,
      0
    ],
    "originalSize": [
      231,
      59
    ],
    "capInsets": [
      0,
      0,
      0,
      0
    ]
  }
}