{
  "__type__": "cc.SpriteFrame",
  "content": {
    "name": "Layer-77-copy",
    "texture": "9c11c000-784b-426f-967e-26da07858806",
    "atlas": "",
    "rect": [
      0,
      0,
      92,
      61
    ],
    "offset": [
      0,
      0
    ],
    "originalSize": [
      92,
      61
    ],
    "capInsets": [
      0,
      0,
      0,
      0
    ]
  }
}