{
  "__type__": "cc.SpriteFrame",
  "content": {
    "name": "chữ tiến len miền nam",
    "texture": "b0cf7150-8834-4209-b1d8-52ceecbbb2a1",
    "atlas": "",
    "rect": [
      0,
      0,
      537,
      52
    ],
    "offset": [
      0,
      0
    ],
    "originalSize": [
      537,
      52
    ],
    "capInsets": [
      0,
      0,
      0,
      0
    ]
  }
}