{
  "__type__": "cc.SpriteFrame",
  "content": {
    "name": "choi-ngay-home",
    "texture": "188a4c22-6f64-49f3-8ef9-a288c3d68deb",
    "atlas": "",
    "rect": [
      0,
      0,
      370,
      138
    ],
    "offset": [
      0,
      0
    ],
    "originalSize": [
      370,
      138
    ],
    "capInsets": [
      0,
      0,
      0,
      0
    ]
  }
}