{
  "__type__": "cc.SpriteFrame",
  "content": {
    "name": "Group 17 copy 3",
    "texture": "44080016-eb93-4e19-b44e-89b43339f53f",
    "atlas": "",
    "rect": [
      2,
      0,
      106,
      123
    ],
    "offset": [
      0,
      1
    ],
    "originalSize": [
      110,
      125
    ],
    "capInsets": [
      0,
      0,
      0,
      0
    ]
  }
}