{
  "__type__": "cc.SpriteFrame",
  "content": {
    "name": "Group 143",
    "texture": "302fd3b9-c538-416b-8306-d9b5cb4a8585",
    "atlas": "",
    "rect": [
      0,
      0,
      90,
      89
    ],
    "offset": [
      0,
      0
    ],
    "originalSize": [
      90,
      89
    ],
    "capInsets": [
      0,
      0,
      0,
      0
    ]
  }
}