{
  "__type__": "cc.SpriteFrame",
  "content": {
    "name": "daily-spin đt",
    "texture": "fd2939df-abc6-40ea-b1ce-7047a9871de6",
    "atlas": "",
    "rect": [
      0,
      0,
      93,
      93
    ],
    "offset": [
      0,
      0
    ],
    "originalSize": [
      93,
      93
    ],
    "capInsets": [
      0,
      0,
      0,
      0
    ]
  }
}