{
  "__type__": "cc.SpriteFrame",
  "content": {
    "name": "Rounded Rectangle 19",
    "texture": "4f43d165-fd8f-4e0a-98e7-3f40a53d98bf",
    "atlas": "",
    "rect": [
      0,
      0,
      634,
      27
    ],
    "offset": [
      0,
      0
    ],
    "originalSize": [
      634,
      27
    ],
    "capInsets": [
      0,
      0,
      0,
      0
    ]
  }
}