{
  "__type__": "cc.SpriteFrame",
  "content": {
    "name": "back_ground_cuoc_ban",
    "texture": "a8ba15bd-350c-4463-a710-7545ad18ec5f",
    "atlas": "",
    "rect": [
      0,
      0,
      737,
      138
    ],
    "offset": [
      0,
      0
    ],
    "originalSize": [
      737,
      138
    ],
    "capInsets": [
      0,
      0,
      0,
      0
    ]
  }
}