{
  "__type__": "cc.BitmapFont",
  "_name": "bitmap-export",
  "_objFlags": 0,
  "_native": "",
  "fntDataStr": "",
  "spriteFrame": {
    "__uuid__": "5c41ba27-4c58-41b1-8481-234a5b8222ff"
  },
  "fontSize": 32,
  "_fntConfig": {
    "commonHeight": 80,
    "fontSize": 32,
    "atlasName": "bitmap-export.png",
    "fontDefDictionary": {
      "9": {
        "rect": {
          "x": 0,
          "y": 0,
          "width": 0,
          "height": 0
        },
        "xOffset": 0,
        "yOffset": 0,
        "xAdvance": 160
      },
      "32": {
        "rect": {
          "x": 0,
          "y": 0,
          "width": 0,
          "height": 0
        },
        "xOffset": 0,
        "yOffset": 0,
        "xAdvance": 20
      },
      "33": {
        "rect": {
          "x": 169,
          "y": 0,
          "width": 8,
          "height": 24
        },
        "xOffset": 0,
        "yOffset": 0,
        "xAdvance": 9
      },
      "34": {
        "rect": {
          "x": 73,
          "y": 241,
          "width": 11,
          "height": 10
        },
        "xOffset": 0,
        "yOffset": 0,
        "xAdvance": 12
      },
      "35": {
        "rect": {
          "x": 133,
          "y": 0,
          "width": 20,
          "height": 24
        },
        "xOffset": 0,
        "yOffset": 0,
        "xAdvance": 21
      },
      "36": {
        "rect": {
          "x": 111,
          "y": 0,
          "width": 21,
          "height": 27
        },
        "xOffset": 0,
        "yOffset": 0,
        "xAdvance": 22
      },
      "37": {
        "rect": {
          "x": 0,
          "y": 69,
          "width": 32,
          "height": 24
        },
        "xOffset": 0,
        "yOffset": 0,
        "xAdvance": 33
      },
      "38": {
        "rect": {
          "x": 0,
          "y": 138,
          "width": 26,
          "height": 24
        },
        "xOffset": 0,
        "yOffset": 0,
        "xAdvance": 27
      },
      "39": {
        "rect": {
          "x": 72,
          "y": 75,
          "width": 5,
          "height": 10
        },
        "xOffset": 0,
        "yOffset": 0,
        "xAdvance": 6
      },
      "40": {
        "rect": {
          "x": 160,
          "y": 85,
          "width": 11,
          "height": 28
        },
        "xOffset": 0,
        "yOffset": 0,
        "xAdvance": 12
      },
      "41": {
        "rect": {
          "x": 165,
          "y": 25,
          "width": 11,
          "height": 28
        },
        "xOffset": 0,
        "yOffset": 0,
        "xAdvance": 12
      },
      "42": {
        "rect": {
          "x": 59,
          "y": 241,
          "width": 13,
          "height": 11
        },
        "xOffset": 0,
        "yOffset": 0,
        "xAdvance": 14
      },
      "43": {
        "rect": {
          "x": 58,
          "y": 75,
          "width": 13,
          "height": 12
        },
        "xOffset": 0,
        "yOffset": 10,
        "xAdvance": 14
      },
      "44": {
        "rect": {
          "x": 96,
          "y": 245,
          "width": 8,
          "height": 8
        },
        "xOffset": 0,
        "yOffset": 19,
        "xAdvance": 9
      },
      "45": {
        "rect": {
          "x": 30,
          "y": 238,
          "width": 12,
          "height": 6
        },
        "xOffset": 0,
        "yOffset": 12,
        "xAdvance": 13
      },
      "46": {
        "rect": {
          "x": 58,
          "y": 88,
          "width": 8,
          "height": 5
        },
        "xOffset": 0,
        "yOffset": 19,
        "xAdvance": 9
      },
      "47": {
        "rect": {
          "x": 154,
          "y": 0,
          "width": 14,
          "height": 24
        },
        "xOffset": 0,
        "yOffset": 0,
        "xAdvance": 15
      },
      "48": {
        "rect": {
          "x": 52,
          "y": 163,
          "width": 24,
          "height": 24
        },
        "xOffset": 0,
        "yOffset": 0,
        "xAdvance": 25
      },
      "49": {
        "rect": {
          "x": 160,
          "y": 114,
          "width": 11,
          "height": 24
        },
        "xOffset": 0,
        "yOffset": 0,
        "xAdvance": 12
      },
      "50": {
        "rect": {
          "x": 61,
          "y": 25,
          "width": 23,
          "height": 24
        },
        "xOffset": 0,
        "yOffset": 0,
        "xAdvance": 24
      },
      "51": {
        "rect": {
          "x": 52,
          "y": 188,
          "width": 24,
          "height": 24
        },
        "xOffset": 0,
        "yOffset": 0,
        "xAdvance": 25
      },
      "52": {
        "rect": {
          "x": 0,
          "y": 163,
          "width": 26,
          "height": 24
        },
        "xOffset": 0,
        "yOffset": 0,
        "xAdvance": 27
      },
      "53": {
        "rect": {
          "x": 39,
          "y": 0,
          "width": 24,
          "height": 24
        },
        "xOffset": 0,
        "yOffset": 0,
        "xAdvance": 25
      },
      "54": {
        "rect": {
          "x": 77,
          "y": 119,
          "width": 23,
          "height": 24
        },
        "xOffset": 0,
        "yOffset": 0,
        "xAdvance": 24
      },
      "55": {
        "rect": {
          "x": 58,
          "y": 50,
          "width": 24,
          "height": 24
        },
        "xOffset": 0,
        "yOffset": 0,
        "xAdvance": 25
      },
      "56": {
        "rect": {
          "x": 83,
          "y": 50,
          "width": 23,
          "height": 24
        },
        "xOffset": 0,
        "yOffset": 0,
        "xAdvance": 24
      },
      "57": {
        "rect": {
          "x": 77,
          "y": 169,
          "width": 23,
          "height": 24
        },
        "xOffset": 0,
        "yOffset": 0,
        "xAdvance": 24
      },
      "58": {
        "rect": {
          "x": 122,
          "y": 240,
          "width": 8,
          "height": 14
        },
        "xOffset": 0,
        "yOffset": 10,
        "xAdvance": 9
      },
      "59": {
        "rect": {
          "x": 145,
          "y": 126,
          "width": 8,
          "height": 17
        },
        "xOffset": 0,
        "yOffset": 10,
        "xAdvance": 9
      },
      "60": {
        "rect": {
          "x": 0,
          "y": 238,
          "width": 14,
          "height": 14
        },
        "xOffset": 0,
        "yOffset": 11,
        "xAdvance": 15
      },
      "61": {
        "rect": {
          "x": 30,
          "y": 245,
          "width": 14,
          "height": 7
        },
        "xOffset": 0,
        "yOffset": 13,
        "xAdvance": 15
      },
      "62": {
        "rect": {
          "x": 15,
          "y": 238,
          "width": 14,
          "height": 14
        },
        "xOffset": 0,
        "yOffset": 9,
        "xAdvance": 15
      },
      "63": {
        "rect": {
          "x": 107,
          "y": 50,
          "width": 21,
          "height": 24
        },
        "xOffset": 0,
        "yOffset": 0,
        "xAdvance": 22
      },
      "64": {
        "rect": {
          "x": 64,
          "y": 0,
          "width": 23,
          "height": 24
        },
        "xOffset": 0,
        "yOffset": 0,
        "xAdvance": 24
      },
      "65": {
        "rect": {
          "x": 0,
          "y": 113,
          "width": 27,
          "height": 24
        },
        "xOffset": 0,
        "yOffset": 0,
        "xAdvance": 28
      },
      "66": {
        "rect": {
          "x": 78,
          "y": 75,
          "width": 23,
          "height": 24
        },
        "xOffset": 0,
        "yOffset": 0,
        "xAdvance": 24
      },
      "67": {
        "rect": {
          "x": 123,
          "y": 145,
          "width": 20,
          "height": 24
        },
        "xOffset": 0,
        "yOffset": 0,
        "xAdvance": 21
      },
      "68": {
        "rect": {
          "x": 27,
          "y": 163,
          "width": 24,
          "height": 24
        },
        "xOffset": 0,
        "yOffset": 0,
        "xAdvance": 25
      },
      "69": {
        "rect": {
          "x": 124,
          "y": 75,
          "width": 20,
          "height": 24
        },
        "xOffset": 0,
        "yOffset": 0,
        "xAdvance": 21
      },
      "70": {
        "rect": {
          "x": 144,
          "y": 145,
          "width": 20,
          "height": 24
        },
        "xOffset": 0,
        "yOffset": 0,
        "xAdvance": 21
      },
      "71": {
        "rect": {
          "x": 27,
          "y": 138,
          "width": 24,
          "height": 24
        },
        "xOffset": 0,
        "yOffset": 0,
        "xAdvance": 25
      },
      "72": {
        "rect": {
          "x": 28,
          "y": 113,
          "width": 24,
          "height": 24
        },
        "xOffset": 0,
        "yOffset": 0,
        "xAdvance": 25
      },
      "73": {
        "rect": {
          "x": 164,
          "y": 170,
          "width": 8,
          "height": 24
        },
        "xOffset": 0,
        "yOffset": 0,
        "xAdvance": 9
      },
      "74": {
        "rect": {
          "x": 144,
          "y": 170,
          "width": 19,
          "height": 24
        },
        "xOffset": 0,
        "yOffset": 0,
        "xAdvance": 20
      },
      "75": {
        "rect": {
          "x": 33,
          "y": 69,
          "width": 24,
          "height": 24
        },
        "xOffset": 0,
        "yOffset": 0,
        "xAdvance": 25
      },
      "76": {
        "rect": {
          "x": 129,
          "y": 47,
          "width": 20,
          "height": 24
        },
        "xOffset": 0,
        "yOffset": 0,
        "xAdvance": 21
      },
      "77": {
        "rect": {
          "x": 0,
          "y": 0,
          "width": 38,
          "height": 24
        },
        "xOffset": 0,
        "yOffset": 0,
        "xAdvance": 39
      },
      "78": {
        "rect": {
          "x": 77,
          "y": 144,
          "width": 23,
          "height": 24
        },
        "xOffset": 0,
        "yOffset": 0,
        "xAdvance": 24
      },
      "79": {
        "rect": {
          "x": 36,
          "y": 25,
          "width": 24,
          "height": 24
        },
        "xOffset": 0,
        "yOffset": 0,
        "xAdvance": 25
      },
      "80": {
        "rect": {
          "x": 26,
          "y": 213,
          "width": 24,
          "height": 24
        },
        "xOffset": 0,
        "yOffset": 0,
        "xAdvance": 25
      },
      "81": {
        "rect": {
          "x": 51,
          "y": 213,
          "width": 24,
          "height": 27
        },
        "xOffset": 0,
        "yOffset": 0,
        "xAdvance": 25
      },
      "82": {
        "rect": {
          "x": 52,
          "y": 138,
          "width": 24,
          "height": 24
        },
        "xOffset": 0,
        "yOffset": 0,
        "xAdvance": 25
      },
      "83": {
        "rect": {
          "x": 88,
          "y": 0,
          "width": 22,
          "height": 24
        },
        "xOffset": 0,
        "yOffset": 0,
        "xAdvance": 23
      },
      "84": {
        "rect": {
          "x": 85,
          "y": 25,
          "width": 22,
          "height": 24
        },
        "xOffset": 0,
        "yOffset": 0,
        "xAdvance": 23
      },
      "85": {
        "rect": {
          "x": 76,
          "y": 213,
          "width": 23,
          "height": 24
        },
        "xOffset": 0,
        "yOffset": 0,
        "xAdvance": 24
      },
      "86": {
        "rect": {
          "x": 26,
          "y": 188,
          "width": 25,
          "height": 24
        },
        "xOffset": 0,
        "yOffset": 0,
        "xAdvance": 26
      },
      "87": {
        "rect": {
          "x": 0,
          "y": 25,
          "width": 35,
          "height": 24
        },
        "xOffset": 0,
        "yOffset": 0,
        "xAdvance": 36
      },
      "88": {
        "rect": {
          "x": 0,
          "y": 188,
          "width": 25,
          "height": 24
        },
        "xOffset": 0,
        "yOffset": 0,
        "xAdvance": 26
      },
      "89": {
        "rect": {
          "x": 0,
          "y": 213,
          "width": 25,
          "height": 24
        },
        "xOffset": 0,
        "yOffset": 0,
        "xAdvance": 26
      },
      "90": {
        "rect": {
          "x": 53,
          "y": 94,
          "width": 24,
          "height": 24
        },
        "xOffset": 0,
        "yOffset": 0,
        "xAdvance": 25
      },
      "91": {
        "rect": {
          "x": 162,
          "y": 195,
          "width": 10,
          "height": 28
        },
        "xOffset": 0,
        "yOffset": 0,
        "xAdvance": 11
      },
      "92": {
        "rect": {
          "x": 145,
          "y": 101,
          "width": 14,
          "height": 24
        },
        "xOffset": 0,
        "yOffset": 0,
        "xAdvance": 15
      },
      "93": {
        "rect": {
          "x": 162,
          "y": 224,
          "width": 10,
          "height": 28
        },
        "xOffset": 0,
        "yOffset": 0,
        "xAdvance": 11
      },
      "94": {
        "rect": {
          "x": 45,
          "y": 241,
          "width": 13,
          "height": 12
        },
        "xOffset": 0,
        "yOffset": 0,
        "xAdvance": 14
      },
      "95": {
        "rect": {
          "x": 0,
          "y": 253,
          "width": 13,
          "height": 2
        },
        "xOffset": 0,
        "yOffset": 28,
        "xAdvance": 14
      },
      "96": {
        "rect": {
          "x": 85,
          "y": 245,
          "width": 10,
          "height": 6
        },
        "xOffset": 0,
        "yOffset": 0,
        "xAdvance": 11
      },
      "97": {
        "rect": {
          "x": 101,
          "y": 170,
          "width": 21,
          "height": 18
        },
        "xOffset": 0,
        "yOffset": 6,
        "xAdvance": 22
      },
      "98": {
        "rect": {
          "x": 122,
          "y": 189,
          "width": 21,
          "height": 24
        },
        "xOffset": 0,
        "yOffset": 0,
        "xAdvance": 22
      },
      "99": {
        "rect": {
          "x": 130,
          "y": 28,
          "width": 16,
          "height": 18
        },
        "xOffset": 0,
        "yOffset": 6,
        "xAdvance": 17
      },
      "100": {
        "rect": {
          "x": 101,
          "y": 145,
          "width": 21,
          "height": 24
        },
        "xOffset": 0,
        "yOffset": 0,
        "xAdvance": 22
      },
      "101": {
        "rect": {
          "x": 34,
          "y": 50,
          "width": 21,
          "height": 18
        },
        "xOffset": 0,
        "yOffset": 6,
        "xAdvance": 22
      },
      "102": {
        "rect": {
          "x": 144,
          "y": 218,
          "width": 17,
          "height": 24
        },
        "xOffset": 0,
        "yOffset": 0,
        "xAdvance": 18
      },
      "103": {
        "rect": {
          "x": 100,
          "y": 194,
          "width": 21,
          "height": 25
        },
        "xOffset": 0,
        "yOffset": 6,
        "xAdvance": 22
      },
      "104": {
        "rect": {
          "x": 100,
          "y": 220,
          "width": 21,
          "height": 24
        },
        "xOffset": 0,
        "yOffset": 0,
        "xAdvance": 22
      },
      "105": {
        "rect": {
          "x": 172,
          "y": 85,
          "width": 7,
          "height": 23
        },
        "xOffset": 0,
        "yOffset": 1,
        "xAdvance": 8
      },
      "106": {
        "rect": {
          "x": 160,
          "y": 54,
          "width": 13,
          "height": 30
        },
        "xOffset": 0,
        "yOffset": 1,
        "xAdvance": 14
      },
      "107": {
        "rect": {
          "x": 102,
          "y": 75,
          "width": 21,
          "height": 24
        },
        "xOffset": 0,
        "yOffset": 0,
        "xAdvance": 22
      },
      "108": {
        "rect": {
          "x": 165,
          "y": 139,
          "width": 7,
          "height": 24
        },
        "xOffset": 0,
        "yOffset": 0,
        "xAdvance": 8
      },
      "109": {
        "rect": {
          "x": 0,
          "y": 50,
          "width": 33,
          "height": 18
        },
        "xOffset": 0,
        "yOffset": 6,
        "xAdvance": 34
      },
      "110": {
        "rect": {
          "x": 102,
          "y": 100,
          "width": 21,
          "height": 18
        },
        "xOffset": 0,
        "yOffset": 6,
        "xAdvance": 22
      },
      "111": {
        "rect": {
          "x": 108,
          "y": 28,
          "width": 21,
          "height": 18
        },
        "xOffset": 0,
        "yOffset": 6,
        "xAdvance": 22
      },
      "112": {
        "rect": {
          "x": 123,
          "y": 119,
          "width": 21,
          "height": 25
        },
        "xOffset": 0,
        "yOffset": 6,
        "xAdvance": 22
      },
      "113": {
        "rect": {
          "x": 122,
          "y": 214,
          "width": 21,
          "height": 25
        },
        "xOffset": 0,
        "yOffset": 6,
        "xAdvance": 22
      },
      "114": {
        "rect": {
          "x": 124,
          "y": 100,
          "width": 15,
          "height": 18
        },
        "xOffset": 0,
        "yOffset": 6,
        "xAdvance": 16
      },
      "115": {
        "rect": {
          "x": 123,
          "y": 170,
          "width": 20,
          "height": 18
        },
        "xOffset": 0,
        "yOffset": 6,
        "xAdvance": 21
      },
      "116": {
        "rect": {
          "x": 144,
          "y": 195,
          "width": 17,
          "height": 22
        },
        "xOffset": 0,
        "yOffset": 2,
        "xAdvance": 18
      },
      "117": {
        "rect": {
          "x": 53,
          "y": 119,
          "width": 21,
          "height": 18
        },
        "xOffset": 0,
        "yOffset": 6,
        "xAdvance": 22
      },
      "118": {
        "rect": {
          "x": 78,
          "y": 100,
          "width": 23,
          "height": 18
        },
        "xOffset": 0,
        "yOffset": 6,
        "xAdvance": 24
      },
      "119": {
        "rect": {
          "x": 0,
          "y": 94,
          "width": 30,
          "height": 18
        },
        "xOffset": 0,
        "yOffset": 6,
        "xAdvance": 31
      },
      "120": {
        "rect": {
          "x": 31,
          "y": 94,
          "width": 21,
          "height": 18
        },
        "xOffset": 0,
        "yOffset": 6,
        "xAdvance": 22
      },
      "121": {
        "rect": {
          "x": 101,
          "y": 119,
          "width": 21,
          "height": 25
        },
        "xOffset": 0,
        "yOffset": 6,
        "xAdvance": 22
      },
      "122": {
        "rect": {
          "x": 77,
          "y": 194,
          "width": 22,
          "height": 18
        },
        "xOffset": 0,
        "yOffset": 6,
        "xAdvance": 23
      },
      "123": {
        "rect": {
          "x": 145,
          "y": 72,
          "width": 14,
          "height": 28
        },
        "xOffset": 0,
        "yOffset": 0,
        "xAdvance": 15
      },
      "124": {
        "rect": {
          "x": 173,
          "y": 109,
          "width": 5,
          "height": 31
        },
        "xOffset": 0,
        "yOffset": 0,
        "xAdvance": 6
      },
      "125": {
        "rect": {
          "x": 150,
          "y": 25,
          "width": 14,
          "height": 28
        },
        "xOffset": 0,
        "yOffset": 0,
        "xAdvance": 15
      },
      "126": {
        "rect": {
          "x": 101,
          "y": 189,
          "width": 14,
          "height": 4
        },
        "xOffset": 0,
        "yOffset": 14,
        "xAdvance": 15
      }
    },
    "kerningDict": {}
  },
  "_fontDefDictionary": null
}