{
  "__type__": "cc.SpriteFrame",
  "content": {
    "name": "fortune_wheel_text",
    "texture": "fa13c0ff-2b17-4924-b64c-5f2a86c2d706",
    "atlas": "",
    "rect": [
      0,
      0,
      468,
      65
    ],
    "offset": [
      0,
      0
    ],
    "originalSize": [
      468,
      65
    ],
    "capInsets": [
      0,
      0,
      0,
      0
    ]
  }
}