{
  "__type__": "cc.SpriteFrame",
  "content": {
    "name": "bích",
    "texture": "919067b3-b934-4c6f-a4fc-759deb10c862",
    "atlas": "448cb66b-277d-438f-b35d-304bdffad72c",
    "rect": [
      1,
      131,
      68,
      90
    ],
    "offset": [
      0,
      -0.5
    ],
    "originalSize": [
      68,
      89
    ],
    "capInsets": [
      0,
      0,
      0,
      0
    ]
  }
}