{
  "__type__": "cc.SpriteFrame",
  "content": {
    "name": "avatar-vien",
    "texture": "69c7a6f1-9cb4-405f-bc80-c977ef4457e5",
    "atlas": "",
    "rect": [
      0,
      0,
      405,
      112
    ],
    "offset": [
      0,
      0
    ],
    "originalSize": [
      405,
      112
    ],
    "capInsets": [
      0,
      0,
      0,
      0
    ]
  }
}