{
  "__type__": "cc.SpriteFrame",
  "content": {
    "name": "choi_tiep_button_effect",
    "texture": "ea9c4fdf-1de5-4e6f-bfea-c4b89057988e",
    "atlas": "",
    "rect": [
      0,
      0,
      59,
      132
    ],
    "offset": [
      0,
      0
    ],
    "originalSize": [
      59,
      132
    ],
    "capInsets": [
      0,
      0,
      0,
      0
    ]
  }
}