{
  "__type__": "cc.SpriteFrame",
  "content": {
    "name": "logo-leader",
    "texture": "4074d559-dc2c-48bc-b4c8-050a60846f44",
    "atlas": "",
    "rect": [
      0,
      0,
      227,
      121
    ],
    "offset": [
      0,
      0
    ],
    "originalSize": [
      227,
      121
    ],
    "capInsets": [
      0,
      0,
      0,
      0
    ]
  }
}